> 04 0E 04 01 0C 20 00
> 04 3E 25 02 01 03 01 35 CB A8 81 3F F3 19 02 01 04 15 FF 99
  04 03 1E 19 4E BF 82 FF DD 00 00 03 EF 0C 8B 00 00 00 00 C5
> 04 3E 25 02 01 03 01 D9 55 D8 B4 C8 F4 19 02 01 04 15 FF 99
  04 03 1E 1A 1F BF 8E FF E9 FF BE 03 CC 0C 8B 00 00 00 00 C6
> 04 3E 25 02 01 03 01 2E B7 A4 ED C0 DC 19 02 01 04 15 FF 99
  04 03 1F 19 58 BF 33 FF E1 FF F1 03 EF 0C 97 00 00 00 00 D1
> 04 3E 25 02 01 03 01 35 CB A8 81 3F F3 19 02 01 04 15 FF 99
  04 03 1E 19 4E BF 7D FF D2 00 00 03 EF 0C 8B 00 00 00 00 D5
> 04 3E 25 02 01 03 01 2E B7 A4 ED C0 DC 19 02 01 04 15 FF 99
  04 03 1F 19 58 BF 2E FF E5 FF F9 03 EB 0C 91 00 00 00 00 D1
> 04 3E 25 02 01 03 01 35 CB A8 81 3F F3 19 02 01 04 15 FF 99
  04 03 1E 19 4E BF 77 FF CE FF FD 03 E8 0C 8B 00 00 00 00 C2
> 04 3E 25 02 01 03 01 D9 55 D8 B4 C8 F4 19 02 01 04 15 FF 99
  04 03 1E 1A 1F BF 94 FF E9 FF BA 03 CC 0C 8B 00 00 00 00 D0
> 04 3E 25 02 01 03 01 2E B7 A4 ED C0 DC 19 02 01 04 15 FF 99
  04 03 1F 19 58 BF 31 FF E1 FF F5 03 F3 0C 91 00 00 00 00 C8
> 04 3E 25 02 01 03 01 35 CB A8 81 3F F3 19 02 01 04 15 FF 99
  04 03 1E 19 4E BF 7A FF D6 FF FD 03 F3 0C 8B 00 00 00 00 C3
> 04 3E 25 02 01 03 01 D9 55 D8 B4 C8 F4 19 02 01 04 15 FF 99
  04 03 1E 1A 20 BF 9B FF DD FF B6 03 E8 0C 85 00 00 00 00 D0
> 04 3E 25 02 01 03 01 2E B7 A4 ED C0 DC 19 02 01 04 15 FF 99
  04 03 1F 19 59 BF 2F FF E1 FF F9 03 EF 0C 97 00 00 00 00 CA
> 04 3E 25 02 01 03 01 35 CB A8 81 3F F3 19 02 01 04 15 FF 99
  04 03 1E 19 4D BF 7B FF CE 00 00 03 F3 0C 91 00 00 00 00 C2
> 04 3E 25 02 01 03 01 D9 55 D8 B4 C8 F4 19 02 01 04 15 FF 99
  04 03 1E 1A 1F BF 94 FF E9 FF C2 03 C8 0C 91 00 00 00 00 D1
> 04 3E 25 02 01 03 01 35 CB A8 81 3F F3 19 02 01 04 15 FF 99
  04 03 1E 19 4D BF 7B FF CE 00 00 03 EB 0C 85 00 00 00 00 C1
> 04 3E 25 02 01 03 01 D9 55 D8 B4 C8 F4 19 02 01 04 15 FF 99
  04 03 1E 1A 1F BF 91 FF E9 FF BA 03 CC 0C 85 00 00 00 00 CC
> 04 3E 25 02 01 03 01 2E B7 A4 ED C0 DC 19 02 01 04 15 FF 99
  04 03 1F 19 59 BF 34 FF E5 FF F1 03 F3 0C 91 00 00 00 00 C9
